{
    "extends": [
        "tslint:recommended",
        "tslint-react"
    ],
    "rules": {
        "quotemark": [ "single", "jsx-double", "avoid-escape" ],
        "interface-name": [ false ],
        "eofline": false,
        "object-literal-sort-keys": false,
        "ordered-imports": [ false ],
        "member-access": [ false ],
        "member-ordering": [ true, {
                "order": ["private-instance-field", "public-instance-field", "constructor"]
            }
        ],
        "arrow-parens": [ true, "ban-single-arg-parens" ],
        "variable-name": [ true, "check-format", "allow-leading-underscore", "ban-keywords" ],
        "curly": [true, "ignore-same-line" ],
        "jsx-no-multiline-js": false
    }
}